label_ocean,Facet,label_raw,text,key,instrument
E,E1,Friendliness,Act comfortably with others.,1,IPIP-NEO-60
C,C2,Orderliness,Like to tidy up.,1,IPIP-NEO-60
C,C6,Cautiousness,Make rash decisions. ,-1,IPIP-NEO-60
O,O3,Emotionality,Am not easily affected by my emotions.  ,-1,IPIP-NEO-60
A,A5,Modesty,Believe that I am better than others. ,-1,IPIP-NEO-60
A,A5,Modesty,Think highly of myself. ,-1,IPIP-NEO-60
E,E1,Friendliness,Make friends easily.,1,IPIP-NEO-60
A,A6,Sympathy,Sympathize with the homeless.,1,IPIP-NEO-60
A,A2,Morality,Take advantage of others. ,-1,IPIP-NEO-60
N,N1,Anxiety,Get stressed out easily.,1,IPIP-NEO-60
O,O2,Artistic Interests,Do not like art. ,-1,IPIP-NEO-60
C,C2,Orderliness,Leave a mess in my room. ,-1,IPIP-NEO-60
A,A1,Trust,Trust others.,1,IPIP-NEO-60
N,N6,Vulnerability, Am calm even in tense situations. ,-1,IPIP-NEO-60
N,N3,Depression,Dislike myself.,1,IPIP-NEO-60
A,A2,Morality,Cheat to get ahead. ,-1,IPIP-NEO-60
A,A6,Sympathy,Feel sympathy for those who are worse off than myself. ,1,IPIP-NEO-60
O,O5,Intellect,Am not interested in theoretical discussions.,-1,IPIP-NEO-60
O,O6,Liberalism,Tend to vote for liberal political candidates.,1,IPIP-NEO-60
E,E2,Gregariousness,Avoid crowds. ,-1,IPIP-NEO-60
O,O5,Intellect,Avoid philosophical discussions. ,-1,IPIP-NEO-60
N,N5,Immoderation,  Am able to control my cravings. ,-1,IPIP-NEO-60
N,N4,Self-consciousness,Am easily intimidated.,1,IPIP-NEO-60
N,N2,Anger,Get angry easily.,1,IPIP-NEO-60
N,N1,Anxiety,Worry about things.,1,IPIP-NEO-60
N,N4,Self-consciousness,Find it difficult to approach others. ,1,IPIP-NEO-60
N,N2,Anger,Lose my temper. ,1,IPIP-NEO-60
O,O4,Adventurousness,Don't like the idea of change. ,-1,IPIP-NEO-60
O,O3,Emotionality,Experience my emotions intensely.,1,IPIP-NEO-60
A,A3,Altruism,Am concerned about others. ,1,IPIP-NEO-60
C,C3,Dutifulness,Tell the truth. ,1,IPIP-NEO-60
N,N5,Immoderation,Rarely overindulge. ,-1,IPIP-NEO-60
N,N6,Vulnerability,Remain calm under pressure. ,-1,IPIP-NEO-60
E,E6,Cheerfulness,Love life. ,1,IPIP-NEO-60
E,E4,Activity Level,Am always busy.,1,IPIP-NEO-60
A,A3,Altruism,Love to help others. ,1,IPIP-NEO-60
E,E3,Assertiveness,Try to lead others.,1,IPIP-NEO-60
O,O1,Imagination,Have a vivid imagination.,1,IPIP-NEO-60
C,C1,Self Efficacy,Handle tasks smoothly. ,1,IPIP-NEO-60
O,O2,Artistic Interests,Believe in the importance of art.,1,IPIP-NEO-60
E,E5,Excitement Seeking,Love excitement.,1,IPIP-NEO-60
C,C5,Self Discipline,Carry out my plans. ,1,IPIP-NEO-60
A,A4,Cooperation,Insult people. ,-1,IPIP-NEO-60
C,C1,Self Efficacy,Know how to get things done. ,1,IPIP-NEO-60
O,O4,Adventurousness,Prefer to stick with things that I know. ,-1,IPIP-NEO-60
C,C5,Self Discipline,Have difficulty starting tasks.  ,-1,IPIP-NEO-60
C,C3,Dutifulness,Break my promises. ,-1,IPIP-NEO-60
E,E4,Activity Level,Am always on the go.,1,IPIP-NEO-60
E,E3,Assertiveness,Take charge.,1,IPIP-NEO-60
C,C4,Achievement Striving,Work hard.,1,IPIP-NEO-60
E,E5,Excitement Seeking,Seek adventure.,1,IPIP-NEO-60
O,O6,Liberalism,Believe in one true religion. ,-1,IPIP-NEO-60
A,A4,Cooperation,Get back at others.,-1,IPIP-NEO-60
C,C4,Achievement Striving,Set high standards for myself and others.  ,1,IPIP-NEO-60
C,C6,Cautiousness,Act without thinking. ,-1,IPIP-NEO-60
E,E6,Cheerfulness,Have a lot of fun.,1,IPIP-NEO-60
A,A1,Trust,Believe that others have good intentions.,1,IPIP-NEO-60
E,E2,Gregariousness,Love large parties.,1,IPIP-NEO-60
O,O1,Imagination,Love to daydream.,1,IPIP-NEO-60
N,N3,Depression,Often feel blue.,1,IPIP-NEO-60